Final Project STATS 306
…
  game_url = col_character(),
  home_score = col_double(),
  away_score = col_double(),
  id = col_character(),
  home_team = col_character(),
  away_team = col_character(),
  temperature = col_double(),
  wind_chill = col_double(),
  humidity = col_character(),
  wind_mph = col_double(),
  weather = col_character(),
  date = col_character()
)

# A tibble: 256 x 12
   schedule_date schedule_season schedule_week schedule_playoff home_team
   <chr>                   <dbl>         <dbl> <lgl>            <chr>    
 1 9/5/13                   2013             1 FALSE            Denver B~
 2 9/8/13                   2013             1 FALSE            Buffalo ~
 3 9/8/13                   2013             1 FALSE            Carolina~
 4 9/8/13                   2013             1 FALSE            Chicago ~
 5 9/8/13                   2013             1 FALSE            Clevelan~
 6 9/8/13                   2013             1 FALSE            Dallas C~
 7 9/8/13                   2013             1 FALSE            Detroit ~
 8 9/8/13                   2013             1 FALSE            Indianap~
 9 9/8/13                   2013             1 FALSE            Jacksonv~
10 9/8/13                   2013             1 FALSE            New Orle~
# ... with 246 more rows, and 7 more variables: score_home <dbl>,
#   score_away <dbl>, away_team <chr>, team_favorite_id <chr>,
#   spread_favorite <dbl>, over_under_line <dbl>, stadium <chr>
…
	CLEMIACLE -2.51023-13 TRUE-13-15.5CLE

	DALNYGDAL -3.53631  5 TRUE  5  1.5DAL

Now, we see the S.A.S. in table form, but now we are creating a more useful table. We first create a helper table _lessfavored which is almost identical to the first table except _team_ofinterest is now the losing team and their _score_againstspread switches signs. We join this helper table with our first table to represent every game in 2013 twice, once from the perspective of each team in the game. We will use table sas later.

In [94]:

less_favored = score_against_spread %>% 
mutate(team_of_interest = ifelse(home_favored, away_abb, home_abb), score_against_spread = -1*score_against_spread)
sas = rbind(score_against_spread, less_favored) 
print(sas)

# A tibble: 512 x 11
   home_abb away_abb team_favorite_id spread_favorite score_home score_away
   <chr>    <chr>    <chr>                      <dbl>      <dbl>      <dbl>
 1 DEN      BAL      DEN                         -7.5         49         27
 2 BUF      NE       NE                         -10.5         21         23
 3 CAR      SEA      SEA                         -3.5          7         12
 4 CHI      CIN      CHI                         -3           24         21
 5 CLE      MIA      CLE                         -2.5         10         23
 6 DAL      NYG      DAL                         -3.5         36         31
 7 DET      MIN      DET                         -4.5         34         24
 8 IND      OAK      IND                        -11.5         21         17
 9 JAC      KC       KC                          -4.5          2         28
10 NO       ATL      NO                          -3.5         23         17
# ... with 502 more rows, and 5 more variables: home_margin <dbl>,
#   home_favored <lgl>, favored_margin <dbl>, score_against_spread <dbl>,
#   team_of_interest <chr>
…
	GB 1 244

	JAC41015

	MIN1  76

Now, we create the table _pick_vs_spreadallv (all variables) by joining the table above with our sas table from earlier. From now on, we will use sas not _score_againstspread because we want to analyze every team, not just favored teams. The joined table has a column for each player, and the team statistics represent the performance of that player's team. We keep the all variables table for the variable _homemargin which will be used to observe effects of draft order on team performance. We only need this stat for one section, so we make another table _pick_vsspread which omits this variable.

In [14]:

pick_vs_spread_allv = left_join(player_by_pick, sas, by = c("team" = "team_of_interest")) %>%
arrange(picktotal) %>% print
pick_vs_spread = select(pick_vs_spread_allv, round, picktotal, score_against_spread) %>% print

# A tibble: 7,398 x 14
   team  round picktotal     k home_abb away_abb team_favorite_id
   <chr> <dbl>     <dbl> <int> <chr>    <chr>    <chr>           
 1 CIN       1         1     9 CIN      PIT      CIN             
 2 CIN       1         1     9 CLE      CIN      CIN             
 3 CIN       1         1     9 BUF      CIN      CIN             
 4 CIN       1         1     9 CIN      NYJ      CIN             
 5 CIN       1         1     9 MIA      CIN      CIN             
 6 CIN       1         1     9 CIN      CLE      CIN             
 7 CIN       1         1     9 SD       CIN      CIN             
 8 CIN       1         1     9 CIN      IND      CIN             
 9 CIN       1         1     9 PIT      CIN      CIN             
10 CIN       1         1     9 CIN      MIN      CIN             
# ... with 7,388 more rows, and 7 more variables: spread_favorite <dbl>,
#   score_home <dbl>, score_away <dbl>, home_margin <dbl>, home_favored <lgl>,
#   favored_margin <dbl>, score_against_spread <dbl>
# A tibble: 7,398 x 3
   round picktotal score_against_spread
   <dbl>     <dbl>                <dbl>
 1     1         1                  3.5
 2     1         1                -15.5
 3     1         1                 -3  
 4     1         1                 35.5
 5     1         1                 -5  
 6     1         1                 16.5
 7     1         1                  5.5
 8     1         1                  7  
 9     1         1                -11.5
10     1         1                 20.5
# ... with 7,388 more rows
…
Question 2 - Teddy¶
How does weather affect how the average offense picks plays for each game?¶

With the availability of basic weather figures for every regular season game in 2013 as well as play-by-play data for the same games, it raises interesting questions surrounding whether or not that weather has an effect on teams' offenses. How does weather in general and how do specific "weather states" change how offenses pick plays for the entirety of the game? To start this analysis, we will need to join the two tables together. We are also only interested in the variables that will help us understand the relationship between weather and offensive play choices such as when the game was played, what types of plays were run, as well as the temperature, wind speed, and wind chill experienced during each game. We also know that we are only interested in outdoor games and that indoor games are input temperature values of 0 so we must filter these out for our further analysis. In our analysis, we use the package gridextra which allows us to plot multiple graphs aligned with each other.

In [96]:

play_weather_join <- full_join(x = plays, y = games, by = c('game_id'))
play_weather_condensed <- play_weather_join %>% 
  select(game_id, game_date, home_team.x, away_team.x, play_type, week, 
         temperature, wind_chill, wind_mph)
play_weather_outdoor_only<- play_weather_condensed %>% filter(temperature != 0) %>% print

# A tibble: 39,895 x 9
   game_id game_date  home_team.x away_team.x play_type  week temperature
     <dbl> <date>     <chr>       <chr>       <chr>     <dbl>       <dbl>
 1  2.01e9 2013-09-05 DEN         BAL         kickoff       1          83
 2  2.01e9 2013-09-05 DEN         BAL         pass          1          83
 3  2.01e9 2013-09-05 DEN         BAL         run           1          83
 4  2.01e9 2013-09-05 DEN         BAL         pass          1          83
 5  2.01e9 2013-09-05 DEN         BAL         punt          1          83
 6  2.01e9 2013-09-05 DEN         BAL         pass          1          83
 7  2.01e9 2013-09-05 DEN         BAL         run           1          83
 8  2.01e9 2013-09-05 DEN         BAL         pass          1          83
 9  2.01e9 2013-09-05 DEN         BAL         pass          1          83
10  2.01e9 2013-09-05 DEN         BAL         run           1          83
# ... with 39,885 more rows, and 2 more variables: wind_chill <dbl>,
#   wind_mph <dbl>
…
top_qb_passing_yards <- quarterback_performance %>%
select(Quarterback, Total.Passing.Yards) %>% 
arrange(desc(Total.Passing.Yards))
#This will order the quarterbacks from highest to lowest based on their season's total passing yards thrown

bottom_qb_passing_yards <- quarterback_performance %>%
select(Quarterback, Total.Passing.Yards) %>%
arrange(Total.Passing.Yards)
#This will order the quarterbacks from lowest to highest based on their season's total passing yards thrown

`summarise()` regrouping output by 'Quarterback' (override with `.groups` argument)

# A tibble: 32 x 9
# Groups:   Quarterback [32]
   Quarterback posteam Completed.Passes Incomplete.Pass~ Total.Passes
   <chr>       <chr>              <dbl>            <dbl>        <dbl>
 1 A.Dalton C~ CIN                  363              200          563
 2 A.Luck IND  IND                  345              215          560
 3 A.Rodgers ~ GB                   193               90          283
 4 A.Smith KC  KC                   308              187          495
 5 B.Roethlis~ PIT                  369              181          550
 6 B.Weeden C~ CLE                  141              114          255
 7 C.Henne JAC JAC                  305              179          484
 8 C.Kaeperni~ SF                   243              164          407
 9 C.Newton C~ CAR                  292              165          457
10 C.Palmer A~ ARI                  362              184          546
# ... with 22 more rows, and 4 more variables: Completion.Percentage <dbl>,
#   Interceptions <dbl>, Touchdowns <dbl>, Total.Passing.Yards <dbl>
…
This model helps us to visualize which starting quarterbacks had a better year in terms of completion percentage and total passing yards. Quarterbacks who performed well in the 2013 in terms of these will show up in the upper right corner of the figure because high completion percentage and high passing yards usually mean a quarterback had a good season. On the other hand though quarterbacks who had a bad season tend to be in the lower left hand corner because lower completion percentage and low passing yards usually mean a quarterback underperformed during that season'

Conclusion from Question: Based on the figures and statistics shown the quarterback who had the best season was P.Manning. This is because during the 2013 season he threw for the most amount of touchdowns and total passing yards, in both of these the person who threw for the second amount was much lower than him as well. He also had the fourth highest completion percentage and for interceptions thrown was in the middle of the pack. The quarterback who had the worst season was T.Pryor. Not only did T.Pryor graduate from Ohio State he also threw for the least amount of touchdowns, was second to last in passing yards and fifth worst completetion percentage. So in conclusion the starting quarterback who had the best 2013 season was P.Manning and the worst was T.Pryor.

Question 4 - Owen¶
What Was the Most Profitable Betting Category in the 2013 NFL Season?¶

Taking a look at the 2013 NFL data, we want to know which category: home favorite, away favorite, home underdog, away underdog, was the most profitable. We will investigate how these team do against their respective point spreads.

In [98]:

games_spreads <- left_join(games, spreads, by = c("week" = "schedule_week", "home_team", "away_team")) %>% print

# A tibble: 256 x 28
   type  game_id home_abb away_abb  week season state_of_game game_url
   <chr>   <dbl> <chr>    <chr>    <dbl>  <dbl> <chr>         <chr>   
 1 reg    2.01e9 DEN      BAL          1   2013 POST          http://~
 2 reg    2.01e9 BUF      NE           1   2013 POST          http://~
 3 reg    2.01e9 PIT      TEN          1   2013 POST          http://~
 4 reg    2.01e9 NO       ATL          1   2013 POST          http://~
 5 reg    2.01e9 NYJ      TB           1   2013 POST          http://~
 6 reg    2.01e9 JAC      KC           1   2013 POST          http://~
 7 reg    2.01e9 CAR      SEA          1   2013 POST          http://~
 8 reg    2.01e9 CHI      CIN          1   2013 POST          http://~
 9 reg    2.01e9 CLE      MIA          1   2013 POST          http://~
10 reg    2.01e9 DET      MIN          1   2013 POST          http://~
# ... with 246 more rows, and 20 more variables: home_score <dbl>,
#   away_score <dbl>, id <chr>, home_team <chr>, away_team <chr>,
#   temperature <dbl>, wind_chill <dbl>, humidity <chr>, wind_mph <dbl>,
#   weather <chr>, date <chr>, schedule_date <chr>, schedule_season <dbl>,
#   schedule_playoff <lgl>, score_home <dbl>, score_away <dbl>,
#   team_favorite_id <chr>, spread_favorite <dbl>, over_under_line <dbl>,
#   stadium <chr>

Since there is no key present in the spreads data set, we needed to join them based on home_team, away_team, and week.

In [28]:

games_favorites <- games_spreads %>% mutate(positive_spread = -1*spread_favorite, 
                   home_away_favorite = ifelse(home_abb == team_favorite_id, "Home Favorite", "Away Favorite"))

games_favorites %>% select(home_abb, away_abb, team_favorite_id, positive_spread, home_away_favorite) %>% print

# A tibble: 256 x 5
   home_abb away_abb team_favorite_id positive_spread home_away_favorite
   <chr>    <chr>    <chr>                      <dbl> <chr>             
 1 DEN      BAL      DEN                          7.5 Home Favorite     
 2 BUF      NE       NE                          10.5 Away Favorite     
 3 PIT      TEN      PIT                          6   Home Favorite     
 4 NO       ATL      NO                           3.5 Home Favorite     
 5 NYJ      TB       TB                           6   Away Favorite     
 6 JAC      KC       KC                           4.5 Away Favorite     
 7 CAR      SEA      SEA                          3.5 Away Favorite     
 8 CHI      CIN      CHI                          3   Home Favorite     
 9 CLE      MIA      CLE                          2.5 Home Favorite     
10 DET      MIN      DET                          4.5 Home Favorite     
#  with 246 more rows
…
